Topic;matters_gatenlp_task2_round1_monoen_run1;matters_gatenlp_task2_round1_monoen_run2;matters_gatenlp_task2_round1_monoen_run3;matters_gatenlp_task2_round1_monoen_run5;matters_gatenlp_task2_round1_monoen_run7
1;1;1;1;1;1
10;0.8;1;0.8;0.8;0.8
11;1;1;1;1;0.8
1101;0.8;1;1;1;0.8
1104;1;1;1;1;1
1105;1;0.2;1;1;1
1106;0.8;1;1;1;1
1110;0.2;0.8;0.8;0.8;0.2
1113;1;0.8;1;1;1
1115;1;1;1;1;1
1116;1;1;1;1;1
1120;1;1;1;1;1
1122;1;0.2;1;1;0.8
1123;1;1;1;1;1
1129;1;1;1;1;1
1130;1;1;0.8;1;1
1135;0.2;0.6;0.6;0.6;0.2
12;0.8;1;0.4;0.4;0.8
13;1;1;1;1;1
14;1;1;1;1;0.8
18;1;1;1;1;1
19;0.8;0.8;0.8;0.8;0.8
21;1;1;1;1;1
22;1;1;1;1;1
23;1;1;1;1;1
24;1;1;1;1;1
3;1;1;1;1;0.8
4;0.2;0.6;0.4;0.6;0.2
6;1;1;1;1;1
7;1;1;1;1;1
