Topic;matters_gatenlp_task2_round1_monoen_run1;matters_gatenlp_task2_round1_monoen_run2;matters_gatenlp_task2_round1_monoen_run3;matters_gatenlp_task2_round1_monoen_run5;matters_gatenlp_task2_round1_monoen_run7
1;0.245645;0.260627;0.247099;0.247099;0.251578
10;0.128561;0.122343;0.118002;0.118178;0.128586
11;0.138104;0.19774;0.171937;0.20321;0.184567
1101;0.39439;0.334251;0.40671;0.425216;0.458016
1104;0.264761;0.168916;0.230323;0.221601;0.260107
1105;0.273703;0.049656;0.297332;0.297226;0.307829
1106;0.267117;0.160953;0.284367;0.290829;0.270391
1110;0.05319;0.112696;0.130686;0.137382;0.06079
1113;0.344156;0.279024;0.378253;0.394911;0.324016
1115;0.222904;0.216863;0.255726;0.230712;0.203081
1116;0.400324;0.35813;0.4512;0.44894;0.359302
1120;0.192145;0.097075;0.184332;0.180788;0.191722
1122;0.376254;0.294292;0.40502;0.408212;0.337907
1123;0.48634;0.433362;0.530844;0.509738;0.451776
1129;0.553991;0.549654;0.577935;0.585562;0.554062
1130;0.320371;0.221835;0.225242;0.285892;0.150918
1135;0.089416;0.207266;0.168083;0.150671;0.096792
12;0.137664;0.20513;0.185719;0.194596;0.142324
13;0.328732;0.279732;0.29751;0.305218;0.332212
14;0.426281;0.450259;0.405779;0.390565;0.407723
18;0.231262;0.212369;0.225535;0.217922;0.242115
19;0.215356;0.189591;0.206871;0.204834;0.204491
21;0.256861;0.267293;0.252837;0.251286;0.253267
22;0.614036;0.632227;0.628205;0.628163;0.604828
23;0.303271;0.263632;0.312469;0.311966;0.293745
24;0.207147;0.198122;0.203441;0.205448;0.202348
3;0.258748;0.235521;0.310991;0.308497;0.259938
4;0.149985;0.172625;0.174637;0.201899;0.152121
6;0.112659;0.105207;0.117529;0.123121;0.120836
7;0.336081;0.402519;0.351372;0.351388;0.35039
