Topic;matters_gatenlp_task2_round1_bilien2de_run27;matters_gatenlp_task2_round1_monode_run30;matters_gatenlp_task2_round1_monode_run33;matters_gatenlp_task2_round1_monode_run36;matters_gatenlp_task2_round1_monode_run39
1;0.482353;0.452941;0.452941;0.452941;0.452941
10;0.6;0.6;0.6;0.6;0.6
11;0.5;0.528571;0.528571;0.528571;0.528571
1101;0.44586;0.44586;0.44586;0.44586;0.44586
1104;0.553846;0.538462;0.538462;0.538462;0.538462
1105;0.730159;0.730159;0.730159;0.730159;0.730159
1106;0.642857;0.535714;0.535714;0.535714;0.535714
1110;0.745098;0.666667;0.666667;0.666667;0.666667
1113;0.704918;0.721311;0.721311;0.721311;0.721311
1115;1;0.96875;0.96875;0.96875;0.96875
1116;0.401235;0.395062;0.395062;0.395062;0.395062
1120;0.78;0.82;0.82;0.82;0.82
1122;0.511236;0.52809;0.52809;0.52809;0.52809
1123;0.688172;0.645161;0.645161;0.645161;0.645161
1129;0.775;0.775;0.775;0.775;0.775
1130;0.772277;0.792079;0.792079;0.792079;0.792079
1135;0.627907;0.697674;0.697674;0.697674;0.697674
12;0.380952;0.380952;0.380952;0.380952;0.380952
13;0.632075;0.660377;0.660377;0.660377;0.660377
14;0.380952;0.371429;0.371429;0.371429;0.371429
18;0.633588;0.671756;0.671756;0.671756;0.671756
19;0.635762;0.615894;0.615894;0.615894;0.615894
21;0.547945;0.561644;0.561644;0.561644;0.561644
22;0.909091;0.909091;0.909091;0.909091;0.909091
23;0.655172;0.655172;0.655172;0.655172;0.655172
24;1;0.882353;0.882353;0.882353;0.882353
3;0.562092;0.522876;0.522876;0.522876;0.522876
4;0.587786;0.580153;0.580153;0.580153;0.580153
6;0.34717;0.339623;0.339623;0.339623;0.339623
7;0.784314;0.764706;0.764706;0.764706;0.764706
