Topic;matters_gatenlp_task2_round1_bilien2es_run40;matters_gatenlp_task2_round1_bilien2es_run43;matters_gatenlp_task2_round1_bilien2es_run46;matters_gatenlp_task2_round1_bilien2es_run49;matters_gatenlp_task2_round1_bilien2es_run52
1;1;1;1;1;1
10;1;1;1;1;1
11;0.8;1;1;0.8;0.4
1101;1;1;1;1;1
1104;1;1;1;1;1
1105;0.2;0.6;0.2;0;0.4
1106;1;1;0.6;0.8;1
1110;0.8;0.8;0.2;0.8;0.2
1113;0.8;0.6;0.6;0.6;0.8
1115;1;1;1;1;1
1116;1;1;1;1;0.8
1120;1;1;0.6;1;0.8
1122;0;0;0.2;0.2;0.2
1123;1;1;1;1;1
1129;0.8;0.4;1;1;0.8
1130;1;0.8;0.8;1;1
1135;0;0;0;0.6;0.8
12;1;1;1;1;1
13;1;1;1;1;1
14;0;0;0.4;0.4;0.2
18;0.8;0.6;0.8;1;0.8
19;1;0.8;0.8;1;1
21;0.8;0.8;0.6;1;1
22;1;1;1;1;1
23;1;1;1;1;1
24;1;1;1;1;1
3;1;1;1;1;1
4;0.4;0.6;0.4;0.6;0.6
6;0.8;1;1;0.8;0.8
7;1;1;1;1;1
