Topic;matters_gatenlp_task2_round1_bilien2de_run42;matters_gatenlp_task2_round1_bilien2de_run45;matters_gatenlp_task2_round1_bilien2de_run48;matters_gatenlp_task2_round1_bilien2de_run51;matters_gatenlp_task2_round1_bilien2de_run54
1;0.209935;0.198433;0.210993;0.21504;0.214688
10;0.345575;0.344386;0.333043;0.346929;0.351243
11;0.407531;0.378428;0.357342;0.321445;0.388775
1101;0.551096;0.544552;0.535455;0.552435;0.541824
1104;0.360115;0.360885;0.344343;0.332576;0.333794
1105;0.011268;0.014177;0;0;0.01062
1106;0.390678;0.354403;0.319005;0.274079;0.36016
1110;0.517485;0.514004;0.435536;0.448942;0.501451
1113;0.714303;0.717902;0.725843;0.674211;0.675128
1115;0.494199;0.452677;0.293868;0.381472;0.455995
1116;0.478584;0.473264;0.44759;0.45283;0.469556
1120;0.509783;0.476286;0.461198;0.457214;0.531897
1122;0.025337;0.020295;0.020108;0.025008;0.026411
1123;0.685091;0.646918;0.620762;0.687286;0.700811
1129;0.131083;0.134354;0.152132;0.17994;0.144577
1130;0.549606;0.548181;0.565899;0.570359;0.558483
1135;0.56377;0.48458;0.583121;0.587021;0.561995
12;0.081628;0.048209;0.037611;0.064224;0.08276
13;0.35484;0.339748;0.316867;0.33329;0.360631
14;0.26301;0.270196;0.268906;0.250554;0.250402
18;0.651085;0.612584;0.615388;0.624675;0.647094
19;0.644624;0.638242;0.608313;0.62723;0.625302
21;0.513057;0.507008;0.50845;0.518115;0.513069
22;0.229763;0.235917;0.222868;0.228278;0.232671
23;0.235518;0.233753;0.232432;0.238017;0.237864
24;0.555392;0.508608;0.519045;0.533705;0.546208
3;0.60483;0.599732;0.592615;0.586474;0.594338
4;0.479415;0.457192;0.444711;0.465422;0.476847
6;0.434329;0.426958;0.435546;0.441742;0.436843
7;0.766996;0.76196;0.758376;0.774711;0.7528
